Engine/Binaries/Win64/UE4Game.exe	2017-08-27T05:33:22.497Z
CTIN485_Final.exe	2017-11-30T01:32:19.443Z
Engine/Extras/Redist/en-us/UE4PrereqSetup_x64.exe	2017-08-27T05:37:26.150Z
Engine/Binaries/ThirdParty/Oculus/OVRPlugin/OVRPlugin/Win64/OVRPlugin.dll	2017-08-27T05:30:40.216Z
Engine/Binaries/ThirdParty/NVIDIA/NVaftermath/Win64/GFSDK_Aftermath_Lib.dll	2017-08-27T05:30:39.815Z
Engine/Binaries/ThirdParty/Windows/DirectX/x64/WinPixEventRuntime.dll	2017-08-27T05:30:55.971Z
Engine/Binaries/ThirdParty/PhysX/Win64/VS2015/PxFoundationPROFILE_x64.dll	2017-08-27T05:30:52.174Z
Engine/Binaries/ThirdParty/PhysX/Win64/VS2015/PxPvdSDKPROFILE_x64.dll	2017-08-27T05:30:52.277Z
Engine/Binaries/ThirdParty/PhysX/Win64/VS2015/PhysX3PROFILE_x64.dll	2017-08-27T05:30:52.129Z
Engine/Binaries/ThirdParty/PhysX/Win64/VS2015/PhysX3CookingPROFILE_x64.dll	2017-08-27T05:30:51.602Z
Engine/Binaries/ThirdParty/PhysX/Win64/VS2015/PhysX3CommonPROFILE_x64.dll	2017-08-27T05:30:51.573Z
Engine/Binaries/ThirdParty/PhysX/Win64/VS2015/APEX_ClothingPROFILE_x64.dll	2017-08-27T05:30:49.468Z
Engine/Binaries/ThirdParty/PhysX/Win64/VS2015/APEX_DestructiblePROFILE_x64.dll	2017-08-27T05:30:50.031Z
Engine/Binaries/ThirdParty/PhysX/Win64/VS2015/APEX_LegacyPROFILE_x64.dll	2017-08-27T05:30:50.415Z
Engine/Binaries/ThirdParty/PhysX/Win64/VS2015/ApexFrameworkPROFILE_x64.dll	2017-08-27T05:30:50.540Z
Engine/Binaries/ThirdParty/PhysX/Win64/VS2015/NvClothPROFILE_x64.dll	2017-08-27T05:30:51.026Z
Engine/Binaries/ThirdParty/Ogg/Win64/VS2015/libogg_64.dll	2017-08-27T05:30:40.258Z
Engine/Binaries/ThirdParty/Vorbis/Win64/VS2015/libvorbis_64.dll	2017-08-27T05:30:55.901Z
Engine/Binaries/ThirdParty/Vorbis/Win64/VS2015/libvorbisfile_64.dll	2017-08-27T05:30:55.912Z
Engine/Binaries/ThirdParty/OpenVR/OpenVRv1_0_7/Win64/openvr_api.dll	2017-08-27T05:30:40.720Z
